\relax 
\providecommand\hyper@newdestlabel[2]{}
\providecommand\HyperFirstAtBeginDocument{\AtBeginDocument}
\HyperFirstAtBeginDocument{\ifx\hyper@anchor\@undefined
\global\let\oldcontentsline\contentsline
\gdef\contentsline#1#2#3#4{\oldcontentsline{#1}{#2}{#3}}
\global\let\oldnewlabel\newlabel
\gdef\newlabel#1#2{\newlabelxx{#1}#2}
\gdef\newlabelxx#1#2#3#4#5#6{\oldnewlabel{#1}{{#2}{#3}}}
\AtEndDocument{\ifx\hyper@anchor\@undefined
\let\contentsline\oldcontentsline
\let\newlabel\oldnewlabel
\fi}
\fi}
\global\let\hyper@last\relax 
\gdef\HyperFirstAtBeginDocument#1{#1}
\providecommand\HyField@AuxAddToFields[1]{}
\providecommand\HyField@AuxAddToCoFields[2]{}
\@writefile{toc}{\contentsline {section}{\numberline {1}Introduction}{1}{section.1}}
\@writefile{toc}{\contentsline {section}{\numberline {2}Design}{1}{section.2}}
\@writefile{toc}{\contentsline {section}{\numberline {3}Enhancements}{1}{section.3}}
\@writefile{toc}{\contentsline {section}{\numberline {4}Critical Evaluation}{1}{section.4}}
\@writefile{toc}{\contentsline {section}{\numberline {5}Personal Evaluation}{2}{section.5}}
\@writefile{toc}{\contentsline {section}{\numberline {A}Screenshots}{3}{appendix.A}}
\@writefile{lof}{\contentsline {figure}{\numberline {1}{\ignorespaces Home page}}{3}{figure.1}}
\newlabel{fig:home}{{1}{3}{Home page}{figure.1}{}}
\@writefile{lof}{\contentsline {figure}{\numberline {2}{\ignorespaces Browsing all phones}}{3}{figure.2}}
\newlabel{fig:browse}{{2}{3}{Browsing all phones}{figure.2}{}}
\@writefile{lof}{\contentsline {figure}{\numberline {3}{\ignorespaces Browsing by manufacturer}}{3}{figure.3}}
\newlabel{fig:manufacturer}{{3}{3}{Browsing by manufacturer}{figure.3}{}}
\@writefile{lof}{\contentsline {figure}{\numberline {4}{\ignorespaces Browsing by specification}}{3}{figure.4}}
\newlabel{fig:specification}{{4}{3}{Browsing by specification}{figure.4}{}}
\@writefile{lof}{\contentsline {figure}{\numberline {5}{\ignorespaces Browsing by specification, showing screen size section}}{3}{figure.5}}
\newlabel{fig:specification2}{{5}{3}{Browsing by specification, showing screen size section}{figure.5}{}}
\@writefile{lof}{\contentsline {figure}{\numberline {6}{\ignorespaces Individual phone's information page}}{4}{figure.6}}
\newlabel{fig:phone}{{6}{4}{Individual phone's information page}{figure.6}{}}
